{"response":{"status":"ok","userTier":"developer","total":25494,"startIndex":1,"pageSize":50,"currentPage":1,"pages":510,"results":[{"id":"a-shot-of-sustainability/a-shot-of-sustainability","type":"keyword","sectionId":"a-shot-of-sustainability","sectionName":"A shot of sustainability","webTitle":"a shot of sustainability","webUrl":"https://www.theguardian.com/a-shot-of-sustainability/a-shot-of-sustainability","apiUrl":"https://content.guardianapis.com/a-shot-of-sustainability/a-shot-of-sustainability"},{"id":"aberdeen-grampian/aberdeen-grampian","type":"keyword","sectionId":"aberdeen-grampian","sectionName":"Aberdeen-Grampian","webTitle":"Aberdeen-Grampian","webUrl":"https://www.theguardian.com/aberdeen-grampian/aberdeen-grampian","apiUrl":"https://content.guardianapis.com/aberdeen-grampian/aberdeen-grampian"},{"id":"about/about","type":"keyword","webTitle":"About","webUrl":"https://www.theguardian.com/about/about","apiUrl":"https://content.guardianapis.com/about/about"},{"id":"about/test-tag--do-not-use-this-","type":"keyword","sectionId":"about","sectionName":"About","webTitle":"Test Tag (DO NOT USE THIS)","webUrl":"https://www.theguardian.com/about/test-tag--do-not-use-this-","apiUrl":"https://content.guardianapis.com/about/test-tag--do-not-use-this-"},{"id":"about/upsetting-subject-test","type":"keyword","sectionId":"about","sectionName":"About","webTitle":"Upsetting Subject Test","webUrl":"https://www.theguardian.com/about/upsetting-subject-test","apiUrl":"https://content.guardianapis.com/about/upsetting-subject-test"},{"id":"abpi-partner-zone/abpi-partner-zone","type":"keyword","sectionId":"abpi-partner-zone","sectionName":"ABPI partner zone","webTitle":"ABPI partner zone","webUrl":"https://www.theguardian.com/abpi-partner-zone/abpi-partner-zone","apiUrl":"https://content.guardianapis.com/abpi-partner-zone/abpi-partner-zone"},{"id":"abu-dhabi/abu-dhabi","type":"keyword","sectionId":"abu-dhabi","sectionName":"Abu Dhabi","webTitle":"Abu Dhabi","webUrl":"https://www.theguardian.com/abu-dhabi/abu-dhabi","apiUrl":"https://content.guardianapis.com/abu-dhabi/abu-dhabi"},{"id":"accenture-partner-zone/accenture-partner-zone","type":"keyword","sectionId":"accenture-partner-zone","sectionName":"Accenture partner zone","webTitle":"Accenture partner zone","webUrl":"https://www.theguardian.com/accenture-partner-zone/accenture-partner-zone","apiUrl":"https://content.guardianapis.com/accenture-partner-zone/accenture-partner-zone"},{"id":"accenture/accenture","type":"keyword","sectionId":"accenture","sectionName":"Accenture","webTitle":"Accenture","webUrl":"https://www.theguardian.com/accenture/accenture","apiUrl":"https://content.guardianapis.com/accenture/accenture"},{"id":"achievementsaward/achievementsaward","type":"keyword","sectionId":"achievementsaward","sectionName":"International Development Achievement Award","webTitle":"International Development Achievement award","webUrl":"https://www.theguardian.com/achievementsaward/achievementsaward","apiUrl":"https://content.guardianapis.com/achievementsaward/achievementsaward"},{"id":"achievementsaward/international-development-achievement-award-2010","type":"keyword","sectionId":"achievementsaward","sectionName":"International Development Achievement Award","webTitle":"International Development Achievement award 2010","webUrl":"https://www.theguardian.com/achievementsaward/international-development-achievement-award-2010","apiUrl":"https://content.guardianapis.com/achievementsaward/international-development-achievement-award-2010"},{"id":"achievementsaward/international-development-achievement-award-2011","type":"keyword","sectionId":"achievementsaward","sectionName":"International Development Achievement Award","webTitle":"International development achievement award 2011","webUrl":"https://www.theguardian.com/achievementsaward/international-development-achievement-award-2011","apiUrl":"https://content.guardianapis.com/achievementsaward/international-development-achievement-award-2011"},{"id":"achievementsaward/judges","type":"keyword","sectionId":"achievementsaward","sectionName":"International Development Achievement Award","webTitle":"Judges","webUrl":"https://www.theguardian.com/achievementsaward/judges","apiUrl":"https://content.guardianapis.com/achievementsaward/judges"},{"id":"action-for-blind-people-partner-zone/action-for-blind-people-partner-zone","type":"keyword","sectionId":"action-for-blind-people-partner-zone","sectionName":"Action for Blind People partner zone","webTitle":"Action for Blind People partner zone","webUrl":"https://www.theguardian.com/action-for-blind-people-partner-zone/action-for-blind-people-partner-zone","apiUrl":"https://content.guardianapis.com/action-for-blind-people-partner-zone/action-for-blind-people-partner-zone"},{"id":"action-for-children/action-for-children","type":"keyword","sectionId":"action-for-children","sectionName":"Action for Children","webTitle":"Action for Children","webUrl":"https://www.theguardian.com/action-for-children/action-for-children","apiUrl":"https://content.guardianapis.com/action-for-children/action-for-children"},{"id":"actionaid-feeling/actionaid-feeling","type":"keyword","sectionId":"actionaid-feeling","sectionName":"ActionAid - What a feeling","webTitle":"ActionAid - What a feeling","webUrl":"https://www.theguardian.com/actionaid-feeling/actionaid-feeling","apiUrl":"https://content.guardianapis.com/actionaid-feeling/actionaid-feeling"},{"id":"actionaid-feeling/rwanda-blog","type":"keyword","sectionId":"actionaid-feeling","sectionName":"ActionAid - What a feeling","webTitle":"Rwanda blog","webUrl":"https://www.theguardian.com/actionaid-feeling/rwanda-blog","apiUrl":"https://content.guardianapis.com/actionaid-feeling/rwanda-blog"},{"id":"activate/activate","type":"keyword","sectionId":"activate","sectionName":"Activate","webTitle":"Activate","webUrl":"https://www.theguardian.com/activate/activate","apiUrl":"https://content.guardianapis.com/activate/activate"},{"id":"activate/activate-2010","type":"keyword","sectionId":"activate","sectionName":"Activate","webTitle":"Activate 2010","webUrl":"https://www.theguardian.com/activate/activate-2010","apiUrl":"https://content.guardianapis.com/activate/activate-2010"},{"id":"activate/activate-conference-2009","type":"keyword","sectionId":"activate","sectionName":"Activate","webTitle":"Activate conference 2009","webUrl":"https://www.theguardian.com/activate/activate-conference-2009","apiUrl":"https://content.guardianapis.com/activate/activate-conference-2009"},{"id":"activate/activate-delhi","type":"keyword","sectionId":"activate","sectionName":"Activate","webTitle":"Activate Delhi","webUrl":"https://www.theguardian.com/activate/activate-delhi","apiUrl":"https://content.guardianapis.com/activate/activate-delhi"},{"id":"activate/activate-london-2011","type":"keyword","sectionId":"activate","sectionName":"Activate","webTitle":"Activate London 2011","webUrl":"https://www.theguardian.com/activate/activate-london-2011","apiUrl":"https://content.guardianapis.com/activate/activate-london-2011"},{"id":"activate/activate-speaker-biographies","type":"keyword","sectionId":"activate","sectionName":"Activate","webTitle":"Activate speaker biographies","webUrl":"https://www.theguardian.com/activate/activate-speaker-biographies","apiUrl":"https://content.guardianapis.com/activate/activate-speaker-biographies"},{"id":"activate/archived-speakers","type":"keyword","sectionId":"activate","sectionName":"Activate","webTitle":"Archived speakers","webUrl":"https://www.theguardian.com/activate/archived-speakers","apiUrl":"https://content.guardianapis.com/activate/archived-speakers"},{"id":"activate/coming-soon","type":"keyword","sectionId":"activate","sectionName":"Activate","webTitle":"Coming Soon","webUrl":"https://www.theguardian.com/activate/coming-soon","apiUrl":"https://content.guardianapis.com/activate/coming-soon"},{"id":"activate/information-power","type":"keyword","sectionId":"activate","sectionName":"Activate","webTitle":"Information power","webUrl":"https://www.theguardian.com/activate/information-power","apiUrl":"https://content.guardianapis.com/activate/information-power"},{"id":"activate/london","type":"keyword","sectionId":"activate","sectionName":"Activate","webTitle":"Activate London","webUrl":"https://www.theguardian.com/activate/london","apiUrl":"https://content.guardianapis.com/activate/london","description":"Guardian Activate Summit 2012: bringing together people who are changing the world through media and technology"},{"id":"activate/london-speaker-interviews","type":"keyword","sectionId":"activate","sectionName":"Activate","webTitle":"London speaker interviews","webUrl":"https://www.theguardian.com/activate/london-speaker-interviews","apiUrl":"https://content.guardianapis.com/activate/london-speaker-interviews"},{"id":"activate/london-speakers","type":"keyword","sectionId":"activate","sectionName":"Activate","webTitle":"Activate London Speakers","webUrl":"https://www.theguardian.com/activate/london-speakers","apiUrl":"https://content.guardianapis.com/activate/london-speakers"},{"id":"activate/new-york","type":"keyword","sectionId":"activate","sectionName":"Activate","webTitle":"Activate New York","webUrl":"https://www.theguardian.com/activate/new-york","apiUrl":"https://content.guardianapis.com/activate/new-york","description":"Guardian Activate 2012: New York.\r\n\r\nBrought to you by the Guardian Newspaper, Guardian News and Media, the Activate platform is the Guardian's gathering place for leaders of a new global network focused on harnessing and employing technological and social innovation for human betterment."},{"id":"activate/new-york-2011","type":"keyword","sectionId":"activate","sectionName":"Activate","webTitle":"Activate New York 2011","webUrl":"https://www.theguardian.com/activate/new-york-2011","apiUrl":"https://content.guardianapis.com/activate/new-york-2011"},{"id":"activate/new-york-speaker-interviews","type":"keyword","sectionId":"activate","sectionName":"Activate","webTitle":"New York speaker interviews","webUrl":"https://www.theguardian.com/activate/new-york-speaker-interviews","apiUrl":"https://content.guardianapis.com/activate/new-york-speaker-interviews"},{"id":"activate/new-york-speakers-2012","type":"keyword","sectionId":"activate","sectionName":"Activate","webTitle":"New York speakers 2012","webUrl":"https://www.theguardian.com/activate/new-york-speakers-2012","apiUrl":"https://content.guardianapis.com/activate/new-york-speakers-2012","description":"A list of Activate New York 2011's confirmed speakers"},{"id":"activate/speaker-interviews","type":"keyword","sectionId":"activate","sectionName":"Activate","webTitle":"Speaker interviews","webUrl":"https://www.theguardian.com/activate/speaker-interviews","apiUrl":"https://content.guardianapis.com/activate/speaker-interviews"},{"id":"activate/workshop","type":"keyword","sectionId":"activate","sectionName":"Activate","webTitle":"Pitching workshop","webUrl":"https://www.theguardian.com/activate/workshop","apiUrl":"https://content.guardianapis.com/activate/workshop"},{"id":"adam-smith-institute-partner-zone/adam-smith-institute-partner-zone","type":"keyword","sectionId":"global-development-professionals-network/adam-smith-institute-partner-zone","sectionName":"Adam Smith Institute partner zone","webTitle":"Adam Smith Institute partner zone","webUrl":"https://www.theguardian.com/adam-smith-institute-partner-zone/adam-smith-institute-partner-zone","apiUrl":"https://content.guardianapis.com/adam-smith-institute-partner-zone/adam-smith-institute-partner-zone"},{"id":"adult-learning/adult-learning","type":"keyword","sectionId":"adult-learning","sectionName":"Adult learning","webTitle":"Adult learning","webUrl":"https://www.theguardian.com/adult-learning/adult-learning","apiUrl":"https://content.guardianapis.com/adult-learning/adult-learning"},{"id":"adult-social-care-patner-zone/adult-social-care-patner-zone","type":"keyword","sectionId":"social-care-network/adult-social-care-patner-zone","sectionName":"Adult social care partner zone","webTitle":"Adult social care partner zone","webUrl":"https://www.theguardian.com/adult-social-care-patner-zone/adult-social-care-patner-zone","apiUrl":"https://content.guardianapis.com/adult-social-care-patner-zone/adult-social-care-patner-zone"},{"id":"advertisement-features/advertisement-features","type":"keyword","sectionId":"global-development-professionals-network/advertisement-features","sectionName":"Advertisement features","webTitle":"Advertisement features","webUrl":"https://www.theguardian.com/advertisement-features/advertisement-features","apiUrl":"https://content.guardianapis.com/advertisement-features/advertisement-features"},{"id":"advertising/advertising","type":"keyword","sectionId":"advertising","sectionName":"Advertising","webTitle":"Advertising","webUrl":"https://www.theguardian.com/advertising/advertising","apiUrl":"https://content.guardianapis.com/advertising/advertising"},{"id":"advertising/advertising-solutions","type":"keyword","sectionId":"advertising","sectionName":"Advertising","webTitle":"Advertising solutions","webUrl":"https://www.theguardian.com/advertising/advertising-solutions","apiUrl":"https://content.guardianapis.com/advertising/advertising-solutions"},{"id":"advertising/audience","type":"keyword","sectionId":"advertising","sectionName":"Advertising","webTitle":"audience","webUrl":"https://www.theguardian.com/advertising/audience","apiUrl":"https://content.guardianapis.com/advertising/audience"},{"id":"advertising/case-studies","type":"keyword","sectionId":"advertising","sectionName":"Advertising","webTitle":"Case studies","webUrl":"https://www.theguardian.com/advertising/case-studies","apiUrl":"https://content.guardianapis.com/advertising/case-studies"},{"id":"advertising/classified","type":"keyword","sectionId":"advertising","sectionName":"Advertising","webTitle":"Classified","webUrl":"https://www.theguardian.com/advertising/classified","apiUrl":"https://content.guardianapis.com/advertising/classified"},{"id":"advertising/contacts","type":"keyword","sectionId":"advertising","sectionName":"Advertising","webTitle":"Contacts","webUrl":"https://www.theguardian.com/advertising/contacts","apiUrl":"https://content.guardianapis.com/advertising/contacts"},{"id":"advertising/courses","type":"keyword","sectionId":"advertising","sectionName":"Advertising","webTitle":"Courses","webUrl":"https://www.theguardian.com/advertising/courses","apiUrl":"https://content.guardianapis.com/advertising/courses"},{"id":"advertising/display","type":"keyword","sectionId":"advertising","sectionName":"Advertising","webTitle":"Display","webUrl":"https://www.theguardian.com/advertising/display","apiUrl":"https://content.guardianapis.com/advertising/display"},{"id":"advertising/downloadable-audience-info","type":"keyword","sectionId":"advertising","sectionName":"Advertising","webTitle":"Downloadable audience info","webUrl":"https://www.theguardian.com/advertising/downloadable-audience-info","apiUrl":"https://content.guardianapis.com/advertising/downloadable-audience-info"},{"id":"advertising/education","type":"keyword","sectionId":"advertising","sectionName":"Advertising","webTitle":"Education","webUrl":"https://www.theguardian.com/advertising/education","apiUrl":"https://content.guardianapis.com/advertising/education"},{"id":"advertising/formats-and-specs","type":"keyword","sectionId":"advertising","sectionName":"Advertising","webTitle":"Formats and specs","webUrl":"https://www.theguardian.com/advertising/formats-and-specs","apiUrl":"https://content.guardianapis.com/advertising/formats-and-specs"}]}}