{"response":{"status":"ok","userTier":"developer","total":363,"startIndex":1,"pageSize":50,"currentPage":1,"pages":8,"results":[{"id":"technology/3d","type":"keyword","sectionId":"technology","sectionName":"Technology","webTitle":"3D","webUrl":"https://www.theguardian.com/technology/3d","apiUrl":"https://content.guardianapis.com/technology/3d"},{"id":"technology/3d-printing","type":"keyword","sectionId":"technology","sectionName":"Technology","webTitle":"3D printing","webUrl":"https://www.theguardian.com/technology/3d-printing","apiUrl":"https://content.guardianapis.com/technology/3d-printing"},{"id":"technology/4chan","type":"keyword","sectionId":"technology","sectionName":"Technology","webTitle":"4chan","webUrl":"https://www.theguardian.com/technology/4chan","apiUrl":"https://content.guardianapis.com/technology/4chan"},{"id":"technology/4g","type":"keyword","sectionId":"technology","sectionName":"Technology","webTitle":"4G","webUrl":"https://www.theguardian.com/technology/4g","apiUrl":"https://content.guardianapis.com/technology/4g"},{"id":"technology/5g","type":"keyword","sectionId":"technology","sectionName":"Technology","webTitle":"5G","webUrl":"https://www.theguardian.com/technology/5g","apiUrl":"https://content.guardianapis.com/technology/5g"},{"id":"technology/aaron-swartz","type":"keyword","sectionId":"technology","sectionName":"Technology","webTitle":"Aaron Swartz","webUrl":"https://www.theguardian.com/technology/aaron-swartz","apiUrl":"https://content.guardianapis.com/technology/aaron-swartz"},{"id":"technology/acer","type":"keyword","sectionId":"technology","sectionName":"Technology","webTitle":"Acer","webUrl":"https://www.theguardian.com/technology/acer","apiUrl":"https://content.guardianapis.com/technology/acer"},{"id":"technology/acta","type":"keyword","sectionId":"technology","sectionName":"Technology","webTitle":"Acta","webUrl":"https://www.theguardian.com/technology/acta","apiUrl":"https://content.guardianapis.com/technology/acta"},{"id":"technology/activision-blizzard","type":"keyword","sectionId":"technology","sectionName":"Technology","webTitle":"Activision Blizzard","webUrl":"https://www.theguardian.com/technology/activision-blizzard","apiUrl":"https://content.guardianapis.com/technology/activision-blizzard"},{"id":"technology/ada-lovelace","type":"keyword","sectionId":"technology","sectionName":"Technology","webTitle":"Ada Lovelace","webUrl":"https://www.theguardian.com/technology/ada-lovelace","apiUrl":"https://content.guardianapis.com/technology/ada-lovelace"},{"id":"technology/adobe","type":"keyword","sectionId":"technology","sectionName":"Technology","webTitle":"Adobe","webUrl":"https://www.theguardian.com/technology/adobe","apiUrl":"https://content.guardianapis.com/technology/adobe"},{"id":"technology/airbnb","type":"keyword","sectionId":"technology","sectionName":"Technology","webTitle":"Airbnb","webUrl":"https://www.theguardian.com/technology/airbnb","apiUrl":"https://content.guardianapis.com/technology/airbnb","description":"Latest news and comment on Airbnb"},{"id":"technology/alphabet","type":"keyword","sectionId":"technology","sectionName":"Technology","webTitle":"Alphabet","webUrl":"https://www.theguardian.com/technology/alphabet","apiUrl":"https://content.guardianapis.com/technology/alphabet"},{"id":"technology/amazon","type":"keyword","sectionId":"technology","sectionName":"Technology","webTitle":"Amazon","webUrl":"https://www.theguardian.com/technology/amazon","apiUrl":"https://content.guardianapis.com/technology/amazon"},{"id":"technology/amazon-alexa","type":"keyword","sectionId":"technology","sectionName":"Technology","webTitle":"Amazon Alexa","webUrl":"https://www.theguardian.com/technology/amazon-alexa","apiUrl":"https://content.guardianapis.com/technology/amazon-alexa"},{"id":"technology/android","type":"keyword","sectionId":"technology","sectionName":"Technology","webTitle":"Android","webUrl":"https://www.theguardian.com/technology/android","apiUrl":"https://content.guardianapis.com/technology/android"},{"id":"technology/andy-rubin","type":"keyword","sectionId":"technology","sectionName":"Technology","webTitle":"Andy Rubin","webUrl":"https://www.theguardian.com/technology/andy-rubin","apiUrl":"https://content.guardianapis.com/technology/andy-rubin"},{"id":"technology/anonymous","type":"keyword","sectionId":"technology","sectionName":"Technology","webTitle":"Anonymous","webUrl":"https://www.theguardian.com/technology/anonymous","apiUrl":"https://content.guardianapis.com/technology/anonymous"},{"id":"technology/aol","type":"keyword","sectionId":"technology","sectionName":"Technology","webTitle":"AOL","webUrl":"https://www.theguardian.com/technology/aol","apiUrl":"https://content.guardianapis.com/technology/aol"},{"id":"technology/apple","type":"keyword","sectionId":"technology","sectionName":"Technology","webTitle":"Apple","webUrl":"https://www.theguardian.com/technology/apple","apiUrl":"https://content.guardianapis.com/technology/apple"},{"id":"technology/apple-music","type":"keyword","sectionId":"technology","sectionName":"Technology","webTitle":"Apple Music","webUrl":"https://www.theguardian.com/technology/apple-music","apiUrl":"https://content.guardianapis.com/technology/apple-music"},{"id":"technology/apple-tv","type":"keyword","sectionId":"technology","sectionName":"Technology","webTitle":"Apple TV","webUrl":"https://www.theguardian.com/technology/apple-tv","apiUrl":"https://content.guardianapis.com/technology/apple-tv"},{"id":"technology/apple-watch","type":"keyword","sectionId":"technology","sectionName":"Technology","webTitle":"Apple Watch","webUrl":"https://www.theguardian.com/technology/apple-watch","apiUrl":"https://content.guardianapis.com/technology/apple-watch"},{"id":"technology/apps","type":"keyword","sectionId":"technology","sectionName":"Technology","webTitle":"Apps","webUrl":"https://www.theguardian.com/technology/apps","apiUrl":"https://content.guardianapis.com/technology/apps"},{"id":"technology/arpanet","type":"keyword","sectionId":"technology","sectionName":"Technology","webTitle":"Arpanet","webUrl":"https://www.theguardian.com/technology/arpanet","apiUrl":"https://content.guardianapis.com/technology/arpanet"},{"id":"technology/artificialintelligenceai","type":"keyword","sectionId":"technology","sectionName":"Technology","webTitle":"Artificial intelligence (AI)","webUrl":"https://www.theguardian.com/technology/artificialintelligenceai","apiUrl":"https://content.guardianapis.com/technology/artificialintelligenceai"},{"id":"technology/ashley-madison","type":"keyword","sectionId":"technology","sectionName":"Technology","webTitle":"Ashley Madison","webUrl":"https://www.theguardian.com/technology/ashley-madison","apiUrl":"https://content.guardianapis.com/technology/ashley-madison","description":"The latest news and comment on dating service Ashley Madison"},{"id":"technology/asus","type":"keyword","sectionId":"technology","sectionName":"Technology","webTitle":"Asus","webUrl":"https://www.theguardian.com/technology/asus","apiUrl":"https://content.guardianapis.com/technology/asus"},{"id":"technology/atlassian","type":"keyword","sectionId":"technology","sectionName":"Technology","webTitle":"Atlassian","webUrl":"https://www.theguardian.com/technology/atlassian","apiUrl":"https://content.guardianapis.com/technology/atlassian"},{"id":"technology/audioboo","type":"keyword","sectionId":"technology","sectionName":"Technology","webTitle":"Audioboo","webUrl":"https://www.theguardian.com/technology/audioboo","apiUrl":"https://content.guardianapis.com/technology/audioboo"},{"id":"technology/augmented-reality","type":"keyword","sectionId":"technology","sectionName":"Technology","webTitle":"Augmented reality","webUrl":"https://www.theguardian.com/technology/augmented-reality","apiUrl":"https://content.guardianapis.com/technology/augmented-reality"},{"id":"technology/bebo","type":"keyword","sectionId":"technology","sectionName":"Technology","webTitle":"Bebo","webUrl":"https://www.theguardian.com/technology/bebo","apiUrl":"https://content.guardianapis.com/technology/bebo"},{"id":"technology/big-data","type":"keyword","sectionId":"technology","sectionName":"Technology","webTitle":"Big data","webUrl":"https://www.theguardian.com/technology/big-data","apiUrl":"https://content.guardianapis.com/technology/big-data"},{"id":"technology/bing","type":"keyword","sectionId":"technology","sectionName":"Technology","webTitle":"Bing","webUrl":"https://www.theguardian.com/technology/bing","apiUrl":"https://content.guardianapis.com/technology/bing"},{"id":"technology/biometrics","type":"keyword","sectionId":"technology","sectionName":"Technology","webTitle":"Biometrics","webUrl":"https://www.theguardian.com/technology/biometrics","apiUrl":"https://content.guardianapis.com/technology/biometrics"},{"id":"technology/bitcoin","type":"keyword","sectionId":"technology","sectionName":"Technology","webTitle":"Bitcoin","webUrl":"https://www.theguardian.com/technology/bitcoin","apiUrl":"https://content.guardianapis.com/technology/bitcoin"},{"id":"technology/bittorrent","type":"keyword","sectionId":"technology","sectionName":"Technology","webTitle":"BitTorrent","webUrl":"https://www.theguardian.com/technology/bittorrent","apiUrl":"https://content.guardianapis.com/technology/bittorrent"},{"id":"technology/biz-stone","type":"keyword","sectionId":"technology","sectionName":"Technology","webTitle":"Biz Stone","webUrl":"https://www.theguardian.com/technology/biz-stone","apiUrl":"https://content.guardianapis.com/technology/biz-stone"},{"id":"technology/blackberry","type":"keyword","sectionId":"technology","sectionName":"Technology","webTitle":"BlackBerry","webUrl":"https://www.theguardian.com/technology/blackberry","apiUrl":"https://content.guardianapis.com/technology/blackberry","description":"The latest news and comment on Blackberry products"},{"id":"technology/blackberry-corporation","type":"keyword","sectionId":"technology","sectionName":"Technology","webTitle":"BlackBerry corporation","webUrl":"https://www.theguardian.com/technology/blackberry-corporation","apiUrl":"https://content.guardianapis.com/technology/blackberry-corporation","description":"The latest news and comment on BlackBerry corporation (formerly RIM), maker of\r\n<a href=\"http://www.guardian.co.uk/technology/blackberry\">BlackBerry smartphones and tablets</a>"},{"id":"technology/blockchain","type":"keyword","sectionId":"technology","sectionName":"Technology","webTitle":"Blockchain","webUrl":"https://www.theguardian.com/technology/blockchain","apiUrl":"https://content.guardianapis.com/technology/blockchain"},{"id":"technology/bluesky","type":"keyword","sectionId":"technology","sectionName":"Technology","webTitle":"Bluesky","webUrl":"https://www.theguardian.com/technology/bluesky","apiUrl":"https://content.guardianapis.com/technology/bluesky"},{"id":"technology/bluetooth","type":"keyword","sectionId":"technology","sectionName":"Technology","webTitle":"Bluetooth","webUrl":"https://www.theguardian.com/technology/bluetooth","apiUrl":"https://content.guardianapis.com/technology/bluetooth"},{"id":"technology/bluray","type":"keyword","sectionId":"technology","sectionName":"Technology","webTitle":"Blu-ray","webUrl":"https://www.theguardian.com/technology/bluray","apiUrl":"https://content.guardianapis.com/technology/bluray"},{"id":"technology/broadband","type":"keyword","sectionId":"technology","sectionName":"Technology","webTitle":"Broadband","webUrl":"https://www.theguardian.com/technology/broadband","apiUrl":"https://content.guardianapis.com/technology/broadband"},{"id":"technology/carol-bartz","type":"keyword","sectionId":"technology","sectionName":"Technology","webTitle":"Carol Bartz","webUrl":"https://www.theguardian.com/technology/carol-bartz","apiUrl":"https://content.guardianapis.com/technology/carol-bartz"},{"id":"technology/ces","type":"keyword","sectionId":"technology","sectionName":"Technology","webTitle":"CES","webUrl":"https://www.theguardian.com/technology/ces","apiUrl":"https://content.guardianapis.com/technology/ces"},{"id":"technology/ces-2011","type":"keyword","sectionId":"technology","sectionName":"Technology","webTitle":"CES 2011","webUrl":"https://www.theguardian.com/technology/ces-2011","apiUrl":"https://content.guardianapis.com/technology/ces-2011"},{"id":"technology/ces-2012","type":"keyword","sectionId":"technology","sectionName":"Technology","webTitle":"CES 2012","webUrl":"https://www.theguardian.com/technology/ces-2012","apiUrl":"https://content.guardianapis.com/technology/ces-2012"},{"id":"technology/ces-2013","type":"keyword","sectionId":"technology","sectionName":"Technology","webTitle":"CES 2013","webUrl":"https://www.theguardian.com/technology/ces-2013","apiUrl":"https://content.guardianapis.com/technology/ces-2013"}]}}